<?xml version='1.0' encoding='utf-8'?>
<graphml xmlns="http://graphml.graphdrawing.org/xmlns" xmlns:xsi="http://www.w3.org/2001/XMLSchema-instance" xsi:schemaLocation="http://graphml.graphdrawing.org/xmlns http://graphml.graphdrawing.org/xmlns/1.0/graphml.xsd"><key attr.name="glymod_NeuAc" attr.type="long" for="edge" id="d16"/>
<key attr.name="glymod_Fuc" attr.type="long" for="edge" id="d15"/>
<key attr.name="glymod_Hex" attr.type="long" for="edge" id="d14"/>
<key attr.name="glymod_HexNAc" attr.type="long" for="edge" id="d13"/>
<key attr.name="weight" attr.type="long" for="edge" id="d12"/>
<key attr.name="hypotenuse" attr.type="long" for="edge" id="d11"/>
<key attr.name="delta_RT" attr.type="double" for="edge" id="d10"/>
<key attr.name="delta_m/z" attr.type="double" for="edge" id="d9"/>
<key attr.name="jumplist" attr.type="string" for="node" id="d8"/>
<key attr.name="jumplist_cluster" attr.type="string" for="node" id="d7"/>
<key attr.name="jumplist_all" attr.type="string" for="node" id="d6"/>
<key attr.name="precursor_charge" attr.type="long" for="node" id="d5"/>
<key attr.name="precursor_rt" attr.type="double" for="node" id="d4"/>
<key attr.name="precursor_mz" attr.type="double" for="node" id="d3"/>
<key attr.name="intensity" attr.type="double" for="node" id="d2"/>
<key attr.name="mz" attr.type="double" for="node" id="d1"/>
<key attr.name="rt" attr.type="double" for="node" id="d0"/>
<graph edgedefault="undirected"><node id="1400">
  <data key="d0">2069.365511</data>
  <data key="d1">3141.244995</data>
  <data key="d2">40736100.0</data>
  <data key="d3">1571.629774</data>
  <data key="d4">2069.365511</data>
  <data key="d5">2</data>
</node>
<node id="1292">
  <data key="d0">2043.929102</data>
  <data key="d1">3465.343461</data>
  <data key="d2">1276249984.0</data>
  <data key="d3">867.344943</data>
  <data key="d4">2044.143513</data>
  <data key="d5">4</data>
</node>
<node id="1425">
  <data key="d0">2075.255343</data>
  <data key="d1">3668.389386</data>
  <data key="d2">3390820096.0</data>
  <data key="d3">1223.803738</data>
  <data key="d4">2075.255343</data>
  <data key="d5">3</data>
</node>
<node id="1309">
  <data key="d0">2048.859986</data>
  <data key="d1">3490.379658</data>
  <data key="d2">375428000.0</data>
  <data key="d3">873.6019108999999</data>
  <data key="d4">2046.467622</data>
  <data key="d5">4</data>
</node>
<node id="1310">
  <data key="d0">2049.29252</data>
  <data key="d1">3652.4133090000005</data>
  <data key="d2">1788359936.0</data>
  <data key="d3">914.1106037999999</data>
  <data key="d4">2049.29252</data>
  <data key="d5">4</data>
</node>
<node id="1437">
  <data key="d0">2076.992651</data>
  <data key="d1">3344.3148149999997</data>
  <data key="d2">1162840064.0</data>
  <data key="d3">1115.778882</data>
  <data key="d4">2076.992651</data>
  <data key="d5">3</data>
</node>
<node id="1440">
  <data key="d0">2077.207335</data>
  <data key="d1">3141.240264</data>
  <data key="d2">1110850048.0</data>
  <data key="d3">786.3173426</data>
  <data key="d4">2077.207335</data>
  <data key="d5">4</data>
</node>
<node id="1313">
  <data key="d0">2049.658292</data>
  <data key="d1">3668.431612</data>
  <data key="d2">662641024.0</data>
  <data key="d3">918.1151796</data>
  <data key="d4">2049.658292</data>
  <data key="d5">4</data>
</node>
<node id="1311">
  <data key="d0">2049.40022</data>
  <data key="d1">3814.4667189999996</data>
  <data key="d2">1407129984.0</data>
  <data key="d3">954.6239562000001</data>
  <data key="d4">2049.40022</data>
  <data key="d5">4</data>
</node>
<node id="1446">
  <data key="d0">2077.555737</data>
  <data key="d1">3141.2382780000003</data>
  <data key="d2">2126470016.0</data>
  <data key="d3">1048.086703</data>
  <data key="d4">2077.555737</data>
  <data key="d5">3</data>
</node>
<node id="1206">
  <data key="d0">2013.12046</data>
  <data key="d1">4033.5810590000006</data>
  <data key="d2">2314769920.0</data>
  <data key="d3">1009.402541</data>
  <data key="d4">2013.12046</data>
  <data key="d5">4</data>
</node>
<node id="1468">
  <data key="d0">2084.110657</data>
  <data key="d1">2938.1556539999997</data>
  <data key="d2">625838016.0</data>
  <data key="d3">735.5469076</data>
  <data key="d4">2082.904296</data>
  <data key="d5">4</data>
</node>
<node id="1469">
  <data key="d0">2084.450684</data>
  <data key="d1">3547.397289</data>
  <data key="d2">212714000.0</data>
  <data key="d3">1183.473039</data>
  <data key="d4">2084.450684</data>
  <data key="d5">3</data>
</node>
<node id="1470">
  <data key="d0">2085.408853</data>
  <data key="d1">2995.188366</data>
  <data key="d2">64021600.0</data>
  <data key="d3">999.4033986</data>
  <data key="d4">2085.408853</data>
  <data key="d5">3</data>
</node>
<node id="1352">
  <data key="d0">2059.040755</data>
  <data key="d1">3830.477797</data>
  <data key="d2">653974016.0</data>
  <data key="d3">958.6267256000001</data>
  <data key="d4">2059.040755</data>
  <data key="d5">4</data>
</node>
<node id="1354">
  <data key="d0">2059.2999</data>
  <data key="d1">3303.291134</data>
  <data key="d2">1279840000.0</data>
  <data key="d3">1102.104321</data>
  <data key="d4">2059.2999</data>
  <data key="d5">3</data>
</node>
<node id="1360">
  <data key="d0">2060.5004489999997</data>
  <data key="d1">3506.379593</data>
  <data key="d2">949430016.0</data>
  <data key="d3">1169.8004740000001</data>
  <data key="d4">2060.5004489999997</data>
  <data key="d5">3</data>
</node>
<node id="1362">
  <data key="d0">2060.895157</data>
  <data key="d1">3506.3773920000003</data>
  <data key="d2">458136000.0</data>
  <data key="d3">877.6016243999999</data>
  <data key="d4">2060.895157</data>
  <data key="d5">4</data>
</node>
<node id="1235">
  <data key="d0">2028.724748</data>
  <data key="d1">3611.400717</data>
  <data key="d2">102152000.0</data>
  <data key="d3">1204.807516</data>
  <data key="d4">2028.724748</data>
  <data key="d5">3</data>
</node>
<node id="1364">
  <data key="d0">2061.5324969999997</data>
  <data key="d1">3303.296929</data>
  <data key="d2">715715968.0</data>
  <data key="d3">826.8315087000001</data>
  <data key="d4">2061.5324969999997</data>
  <data key="d5">4</data>
</node>
<node id="1372">
  <data key="d0">2063.907792</data>
  <data key="d1">3449.333776</data>
  <data key="d2">1037180032.0</data>
  <data key="d3">863.3407204</data>
  <data key="d4">2063.907792</data>
  <data key="d5">4</data>
</node>
<node id="1245">
  <data key="d0">2032.9074239999998</data>
  <data key="d1">3830.4791630000004</data>
  <data key="d2">668457024.0</data>
  <data key="d3">1277.833664</data>
  <data key="d4">2032.9074239999998</data>
  <data key="d5">3</data>
</node>
<node id="1374">
  <data key="d0">2064.317452</data>
  <data key="d1">3709.450029</data>
  <data key="d2">1935600000.0</data>
  <data key="d3">1237.49062</data>
  <data key="d4">2064.317452</data>
  <data key="d5">3</data>
</node>
<node id="1254">
  <data key="d0">2035.416559</data>
  <data key="d1">3693.472231</data>
  <data key="d2">56779600.0</data>
  <data key="d3">924.3753341</data>
  <data key="d4">2035.416559</data>
  <data key="d5">4</data>
</node>
<node id="1266">
  <data key="d0">2037.21832</data>
  <data key="d1">4179.642851</data>
  <data key="d2">2108610048.0</data>
  <data key="d3">1045.917989</data>
  <data key="d4">2037.21832</data>
  <data key="d5">4</data>
</node>
<node id="1272">
  <data key="d0">2038.8386039999998</data>
  <data key="d1">3449.342037</data>
  <data key="d2">684041984.0</data>
  <data key="d3">1150.7879560000001</data>
  <data key="d4">2038.8386039999998</data>
  <data key="d5">3</data>
</node>
<node id="0">
  <data key="d6">&lt;table border="1" class="dataframe"&gt;
  &lt;thead&gt;
    &lt;tr style="text-align: right;"&gt;
      &lt;th&gt;difference&lt;/th&gt;
      &lt;th&gt;max_rt&lt;/th&gt;
      &lt;th&gt;weight&lt;/th&gt;
      &lt;th&gt;color&lt;/th&gt;
      &lt;th&gt;cluster&lt;/th&gt;
      &lt;th&gt;cluster_min_rt&lt;/th&gt;
      &lt;th&gt;glymod_HexNAc&lt;/th&gt;
      &lt;th&gt;glymod_Hex&lt;/th&gt;
      &lt;th&gt;glymod_Fuc&lt;/th&gt;
      &lt;th&gt;glymod_NeuAc&lt;/th&gt;
    &lt;/tr&gt;
  &lt;/thead&gt;
  &lt;tbody&gt;
    &lt;tr&gt;
      &lt;td&gt;162.05282&lt;/td&gt;
      &lt;td&gt;30&lt;/td&gt;
      &lt;td&gt;1&lt;/td&gt;
      &lt;td&gt;yellow&lt;/td&gt;
      &lt;td&gt;0&lt;/td&gt;
      &lt;td&gt;0&lt;/td&gt;
      &lt;td&gt;0&lt;/td&gt;
      &lt;td&gt;1&lt;/td&gt;
      &lt;td&gt;0&lt;/td&gt;
      &lt;td&gt;0&lt;/td&gt;
    &lt;/tr&gt;
    &lt;tr&gt;
      &lt;td&gt;203.07937&lt;/td&gt;
      &lt;td&gt;30&lt;/td&gt;
      &lt;td&gt;1&lt;/td&gt;
      &lt;td&gt;blue&lt;/td&gt;
      &lt;td&gt;0&lt;/td&gt;
      &lt;td&gt;0&lt;/td&gt;
      &lt;td&gt;1&lt;/td&gt;
      &lt;td&gt;0&lt;/td&gt;
      &lt;td&gt;0&lt;/td&gt;
      &lt;td&gt;0&lt;/td&gt;
    &lt;/tr&gt;
    &lt;tr&gt;
      &lt;td&gt;365.13219&lt;/td&gt;
      &lt;td&gt;50&lt;/td&gt;
      &lt;td&gt;1&lt;/td&gt;
      &lt;td&gt;green&lt;/td&gt;
      &lt;td&gt;0&lt;/td&gt;
      &lt;td&gt;0&lt;/td&gt;
      &lt;td&gt;1&lt;/td&gt;
      &lt;td&gt;1&lt;/td&gt;
      &lt;td&gt;0&lt;/td&gt;
      &lt;td&gt;0&lt;/td&gt;
    &lt;/tr&gt;
    &lt;tr&gt;
      &lt;td&gt;146.05791&lt;/td&gt;
      &lt;td&gt;30&lt;/td&gt;
      &lt;td&gt;1&lt;/td&gt;
      &lt;td&gt;red&lt;/td&gt;
      &lt;td&gt;0&lt;/td&gt;
      &lt;td&gt;0&lt;/td&gt;
      &lt;td&gt;0&lt;/td&gt;
      &lt;td&gt;0&lt;/td&gt;
      &lt;td&gt;1&lt;/td&gt;
      &lt;td&gt;0&lt;/td&gt;
    &lt;/tr&gt;
    &lt;tr&gt;
      &lt;td&gt;291.09540&lt;/td&gt;
      &lt;td&gt;500&lt;/td&gt;
      &lt;td&gt;1&lt;/td&gt;
      &lt;td&gt;pink&lt;/td&gt;
      &lt;td&gt;1&lt;/td&gt;
      &lt;td&gt;100&lt;/td&gt;
      &lt;td&gt;0&lt;/td&gt;
      &lt;td&gt;0&lt;/td&gt;
      &lt;td&gt;0&lt;/td&gt;
      &lt;td&gt;1&lt;/td&gt;
    &lt;/tr&gt;
  &lt;/tbody&gt;
&lt;/table&gt;</data>
  <data key="d7">&lt;table border="1" class="dataframe"&gt;
  &lt;thead&gt;
    &lt;tr style="text-align: right;"&gt;
      &lt;th&gt;difference&lt;/th&gt;
      &lt;th&gt;max_rt&lt;/th&gt;
      &lt;th&gt;weight&lt;/th&gt;
      &lt;th&gt;color&lt;/th&gt;
      &lt;th&gt;cluster&lt;/th&gt;
      &lt;th&gt;cluster_min_rt&lt;/th&gt;
      &lt;th&gt;glymod_HexNAc&lt;/th&gt;
      &lt;th&gt;glymod_Hex&lt;/th&gt;
      &lt;th&gt;glymod_Fuc&lt;/th&gt;
      &lt;th&gt;glymod_NeuAc&lt;/th&gt;
    &lt;/tr&gt;
  &lt;/thead&gt;
  &lt;tbody&gt;
    &lt;tr&gt;
      &lt;td&gt;291.0954&lt;/td&gt;
      &lt;td&gt;500&lt;/td&gt;
      &lt;td&gt;1&lt;/td&gt;
      &lt;td&gt;pink&lt;/td&gt;
      &lt;td&gt;1&lt;/td&gt;
      &lt;td&gt;100&lt;/td&gt;
      &lt;td&gt;0&lt;/td&gt;
      &lt;td&gt;0&lt;/td&gt;
      &lt;td&gt;0&lt;/td&gt;
      &lt;td&gt;1&lt;/td&gt;
    &lt;/tr&gt;
  &lt;/tbody&gt;
&lt;/table&gt;</data>
  <data key="d8">&lt;table border="1" class="dataframe"&gt;
  &lt;thead&gt;
    &lt;tr style="text-align: right;"&gt;
      &lt;th&gt;difference&lt;/th&gt;
      &lt;th&gt;max_rt&lt;/th&gt;
      &lt;th&gt;weight&lt;/th&gt;
      &lt;th&gt;color&lt;/th&gt;
      &lt;th&gt;cluster&lt;/th&gt;
      &lt;th&gt;cluster_min_rt&lt;/th&gt;
      &lt;th&gt;glymod_HexNAc&lt;/th&gt;
      &lt;th&gt;glymod_Hex&lt;/th&gt;
      &lt;th&gt;glymod_Fuc&lt;/th&gt;
      &lt;th&gt;glymod_NeuAc&lt;/th&gt;
    &lt;/tr&gt;
  &lt;/thead&gt;
  &lt;tbody&gt;
    &lt;tr&gt;
      &lt;td&gt;162.05282&lt;/td&gt;
      &lt;td&gt;30&lt;/td&gt;
      &lt;td&gt;1&lt;/td&gt;
      &lt;td&gt;yellow&lt;/td&gt;
      &lt;td&gt;0&lt;/td&gt;
      &lt;td&gt;0&lt;/td&gt;
      &lt;td&gt;0&lt;/td&gt;
      &lt;td&gt;1&lt;/td&gt;
      &lt;td&gt;0&lt;/td&gt;
      &lt;td&gt;0&lt;/td&gt;
    &lt;/tr&gt;
    &lt;tr&gt;
      &lt;td&gt;203.07937&lt;/td&gt;
      &lt;td&gt;30&lt;/td&gt;
      &lt;td&gt;1&lt;/td&gt;
      &lt;td&gt;blue&lt;/td&gt;
      &lt;td&gt;0&lt;/td&gt;
      &lt;td&gt;0&lt;/td&gt;
      &lt;td&gt;1&lt;/td&gt;
      &lt;td&gt;0&lt;/td&gt;
      &lt;td&gt;0&lt;/td&gt;
      &lt;td&gt;0&lt;/td&gt;
    &lt;/tr&gt;
    &lt;tr&gt;
      &lt;td&gt;365.13219&lt;/td&gt;
      &lt;td&gt;50&lt;/td&gt;
      &lt;td&gt;1&lt;/td&gt;
      &lt;td&gt;green&lt;/td&gt;
      &lt;td&gt;0&lt;/td&gt;
      &lt;td&gt;0&lt;/td&gt;
      &lt;td&gt;1&lt;/td&gt;
      &lt;td&gt;1&lt;/td&gt;
      &lt;td&gt;0&lt;/td&gt;
      &lt;td&gt;0&lt;/td&gt;
    &lt;/tr&gt;
    &lt;tr&gt;
      &lt;td&gt;146.05791&lt;/td&gt;
      &lt;td&gt;30&lt;/td&gt;
      &lt;td&gt;1&lt;/td&gt;
      &lt;td&gt;red&lt;/td&gt;
      &lt;td&gt;0&lt;/td&gt;
      &lt;td&gt;0&lt;/td&gt;
      &lt;td&gt;0&lt;/td&gt;
      &lt;td&gt;0&lt;/td&gt;
      &lt;td&gt;1&lt;/td&gt;
      &lt;td&gt;0&lt;/td&gt;
    &lt;/tr&gt;
  &lt;/tbody&gt;
&lt;/table&gt;</data>
  <data key="d0">0.0</data>
  <data key="d1">0.0</data>
  <data key="d2">0.0</data>
</node>
<edge source="1400" target="1354">
  <data key="d9">162.04613900000004</data>
  <data key="d10">10.06561099999999</data>
  <data key="d11">1</data>
  <data key="d12">1</data>
  <data key="d13">0</data>
  <data key="d14">1</data>
  <data key="d15">0</data>
  <data key="d16">0</data>
</edge>
<edge source="1400" target="1360">
  <data key="d9">365.1345980000001</data>
  <data key="d10">8.865062000000307</data>
  <data key="d11">1</data>
  <data key="d12">1</data>
  <data key="d13">1</data>
  <data key="d14">1</data>
  <data key="d15">0</data>
  <data key="d16">0</data>
</edge>
<edge source="1400" target="1362">
  <data key="d9">365.1323970000003</data>
  <data key="d10">8.470354000000043</data>
  <data key="d11">1</data>
  <data key="d12">1</data>
  <data key="d13">1</data>
  <data key="d14">1</data>
  <data key="d15">0</data>
  <data key="d16">0</data>
</edge>
<edge source="1400" target="1468">
  <data key="d9">203.08934100000033</data>
  <data key="d10">14.745146000000204</data>
  <data key="d11">1</data>
  <data key="d12">1</data>
  <data key="d13">1</data>
  <data key="d14">0</data>
  <data key="d15">0</data>
  <data key="d16">0</data>
</edge>
<edge source="1400" target="1470">
  <data key="d9">146.05662900000016</data>
  <data key="d10">16.04334199999994</data>
  <data key="d11">1</data>
  <data key="d12">1</data>
  <data key="d13">0</data>
  <data key="d14">0</data>
  <data key="d15">1</data>
  <data key="d16">0</data>
</edge>
<edge source="1292" target="1235">
  <data key="d9">146.05725600000005</data>
  <data key="d10">15.204353999999967</data>
  <data key="d11">1</data>
  <data key="d12">1</data>
  <data key="d13">0</data>
  <data key="d14">0</data>
  <data key="d15">1</data>
  <data key="d16">0</data>
</edge>
<edge source="1292" target="1245">
  <data key="d9">365.1357020000005</data>
  <data key="d10">11.021678000000293</data>
  <data key="d11">1</data>
  <data key="d12">1</data>
  <data key="d13">1</data>
  <data key="d14">1</data>
  <data key="d15">0</data>
  <data key="d16">0</data>
</edge>
<edge source="1292" target="1354">
  <data key="d9">162.05232699999988</data>
  <data key="d10">15.370797999999922</data>
  <data key="d11">1</data>
  <data key="d12">1</data>
  <data key="d13">0</data>
  <data key="d14">1</data>
  <data key="d15">0</data>
  <data key="d16">0</data>
</edge>
<edge source="1292" target="1364">
  <data key="d9">162.04653199999984</data>
  <data key="d10">17.603394999999637</data>
  <data key="d11">1</data>
  <data key="d12">1</data>
  <data key="d13">0</data>
  <data key="d14">1</data>
  <data key="d15">0</data>
  <data key="d16">0</data>
</edge>
<edge source="1292" target="1352">
  <data key="d9">365.1343360000001</data>
  <data key="d10">-15.111652999999933</data>
  <data key="d11">1</data>
  <data key="d12">1</data>
  <data key="d13">1</data>
  <data key="d14">1</data>
  <data key="d15">0</data>
  <data key="d16">0</data>
</edge>
<edge source="1425" target="1311">
  <data key="d9">146.07733299999973</data>
  <data key="d10">25.85512299999982</data>
  <data key="d11">1</data>
  <data key="d12">1</data>
  <data key="d13">0</data>
  <data key="d14">0</data>
  <data key="d15">1</data>
  <data key="d16">0</data>
</edge>
<edge source="1309" target="1254">
  <data key="d9">203.09257300000036</data>
  <data key="d10">13.443426999999929</data>
  <data key="d11">1</data>
  <data key="d12">1</data>
  <data key="d13">1</data>
  <data key="d14">0</data>
  <data key="d15">0</data>
  <data key="d16">0</data>
</edge>
<edge source="1309" target="1437">
  <data key="d9">146.0648430000001</data>
  <data key="d10">28.132665000000088</data>
  <data key="d11">1</data>
  <data key="d12">1</data>
  <data key="d13">0</data>
  <data key="d14">0</data>
  <data key="d15">1</data>
  <data key="d16">0</data>
</edge>
<edge source="1309" target="1310">
  <data key="d9">162.03365100000065</data>
  <data key="d10">-0.4325340000000324</data>
  <data key="d11">1</data>
  <data key="d12">1</data>
  <data key="d13">0</data>
  <data key="d14">1</data>
  <data key="d15">0</data>
  <data key="d16">0</data>
</edge>
<edge source="1310" target="1272">
  <data key="d9">203.0712720000006</data>
  <data key="d10">-10.453916000000163</data>
  <data key="d11">1</data>
  <data key="d12">1</data>
  <data key="d13">1</data>
  <data key="d14">0</data>
  <data key="d15">0</data>
  <data key="d16">0</data>
</edge>
<edge source="1310" target="1372">
  <data key="d9">203.07953300000054</data>
  <data key="d10">14.615272000000004</data>
  <data key="d11">1</data>
  <data key="d12">1</data>
  <data key="d13">1</data>
  <data key="d14">0</data>
  <data key="d15">0</data>
  <data key="d16">0</data>
</edge>
<edge source="1310" target="1311">
  <data key="d9">162.05340999999908</data>
  <data key="d10">-0.10770000000002256</data>
  <data key="d11">1</data>
  <data key="d12">1</data>
  <data key="d13">0</data>
  <data key="d14">1</data>
  <data key="d15">0</data>
  <data key="d16">0</data>
</edge>
<edge source="1437" target="1360">
  <data key="d9">162.0647780000004</data>
  <data key="d10">16.49220200000036</data>
  <data key="d11">1</data>
  <data key="d12">1</data>
  <data key="d13">0</data>
  <data key="d14">1</data>
  <data key="d15">0</data>
  <data key="d16">0</data>
</edge>
<edge source="1437" target="1362">
  <data key="d9">162.0625770000006</data>
  <data key="d10">16.097494000000097</data>
  <data key="d11">1</data>
  <data key="d12">1</data>
  <data key="d13">0</data>
  <data key="d14">1</data>
  <data key="d15">0</data>
  <data key="d16">0</data>
</edge>
<edge source="1437" target="1374">
  <data key="d9">365.13521400000036</data>
  <data key="d10">12.675199000000248</data>
  <data key="d11">1</data>
  <data key="d12">1</data>
  <data key="d13">1</data>
  <data key="d14">1</data>
  <data key="d15">0</data>
  <data key="d16">0</data>
</edge>
<edge source="1440" target="1354">
  <data key="d9">162.05087000000003</data>
  <data key="d10">17.907435000000078</data>
  <data key="d11">1</data>
  <data key="d12">1</data>
  <data key="d13">0</data>
  <data key="d14">1</data>
  <data key="d15">0</data>
  <data key="d16">0</data>
</edge>
<edge source="1440" target="1468">
  <data key="d9">203.08461000000034</data>
  <data key="d10">6.9033220000001165</data>
  <data key="d11">1</data>
  <data key="d12">1</data>
  <data key="d13">1</data>
  <data key="d14">0</data>
  <data key="d15">0</data>
  <data key="d16">0</data>
</edge>
<edge source="1440" target="1470">
  <data key="d9">146.05189800000016</data>
  <data key="d10">8.20151799999985</data>
  <data key="d11">1</data>
  <data key="d12">1</data>
  <data key="d13">0</data>
  <data key="d14">0</data>
  <data key="d15">1</data>
  <data key="d16">0</data>
</edge>
<edge source="1313" target="1206">
  <data key="d9">365.1494470000007</data>
  <data key="d10">36.53783199999998</data>
  <data key="d11">1</data>
  <data key="d12">1</data>
  <data key="d13">1</data>
  <data key="d14">1</data>
  <data key="d15">0</data>
  <data key="d16">0</data>
</edge>
<edge source="1313" target="1245">
  <data key="d9">162.04755100000057</data>
  <data key="d10">16.75086800000031</data>
  <data key="d11">1</data>
  <data key="d12">1</data>
  <data key="d13">0</data>
  <data key="d14">1</data>
  <data key="d15">0</data>
  <data key="d16">0</data>
</edge>
<edge source="1313" target="1354">
  <data key="d9">365.1404779999998</data>
  <data key="d10">9.641607999999906</data>
  <data key="d11">1</data>
  <data key="d12">1</data>
  <data key="d13">1</data>
  <data key="d14">1</data>
  <data key="d15">0</data>
  <data key="d16">0</data>
</edge>
<edge source="1313" target="1360">
  <data key="d9">162.05201899999975</data>
  <data key="d10">10.842156999999588</data>
  <data key="d11">1</data>
  <data key="d12">1</data>
  <data key="d13">0</data>
  <data key="d14">1</data>
  <data key="d15">0</data>
  <data key="d16">0</data>
</edge>
<edge source="1313" target="1362">
  <data key="d9">162.05421999999953</data>
  <data key="d10">11.236864999999852</data>
  <data key="d11">1</data>
  <data key="d12">1</data>
  <data key="d13">0</data>
  <data key="d14">1</data>
  <data key="d15">0</data>
  <data key="d16">0</data>
</edge>
<edge source="1311" target="1235">
  <data key="d9">203.06600199999957</data>
  <data key="d10">-20.6754719999999</data>
  <data key="d11">1</data>
  <data key="d12">1</data>
  <data key="d13">1</data>
  <data key="d14">0</data>
  <data key="d15">0</data>
  <data key="d16">0</data>
</edge>
<edge source="1311" target="1372">
  <data key="d9">365.1329429999996</data>
  <data key="d10">14.507571999999982</data>
  <data key="d11">1</data>
  <data key="d12">1</data>
  <data key="d13">1</data>
  <data key="d14">1</data>
  <data key="d15">0</data>
  <data key="d16">0</data>
</edge>
<edge source="1446" target="1354">
  <data key="d9">162.0528559999998</data>
  <data key="d10">18.255837000000156</data>
  <data key="d11">1</data>
  <data key="d12">1</data>
  <data key="d13">0</data>
  <data key="d14">1</data>
  <data key="d15">0</data>
  <data key="d16">0</data>
</edge>
<edge source="1446" target="1468">
  <data key="d9">203.08262400000058</data>
  <data key="d10">6.554920000000038</data>
  <data key="d11">1</data>
  <data key="d12">1</data>
  <data key="d13">1</data>
  <data key="d14">0</data>
  <data key="d15">0</data>
  <data key="d16">0</data>
</edge>
<edge source="1446" target="1470">
  <data key="d9">146.0499120000004</data>
  <data key="d10">7.853115999999773</data>
  <data key="d11">1</data>
  <data key="d12">1</data>
  <data key="d13">0</data>
  <data key="d14">0</data>
  <data key="d15">1</data>
  <data key="d16">0</data>
</edge>
<edge source="1206" target="1266">
  <data key="d9">146.06179199999906</data>
  <data key="d10">-24.097859999999855</data>
  <data key="d11">1</data>
  <data key="d12">1</data>
  <data key="d13">0</data>
  <data key="d14">0</data>
  <data key="d15">1</data>
  <data key="d16">0</data>
</edge>
<edge source="1468" target="1354">
  <data key="d9">365.13548000000037</data>
  <data key="d10">24.810757000000194</data>
  <data key="d11">1</data>
  <data key="d12">1</data>
  <data key="d13">1</data>
  <data key="d14">1</data>
  <data key="d15">0</data>
  <data key="d16">0</data>
</edge>
<edge source="1469" target="1374">
  <data key="d9">162.05274000000009</data>
  <data key="d10">20.133232000000135</data>
  <data key="d11">1</data>
  <data key="d12">1</data>
  <data key="d13">0</data>
  <data key="d14">1</data>
  <data key="d15">0</data>
  <data key="d16">0</data>
</edge>
<edge source="1354" target="1272">
  <data key="d9">146.05090299999983</data>
  <data key="d10">20.461296000000175</data>
  <data key="d11">1</data>
  <data key="d12">1</data>
  <data key="d13">0</data>
  <data key="d14">0</data>
  <data key="d15">1</data>
  <data key="d16">0</data>
</edge>
<edge source="1360" target="1364">
  <data key="d9">203.08266400000002</data>
  <data key="d10">1.0320480000000316</data>
  <data key="d11">1</data>
  <data key="d12">1</data>
  <data key="d13">1</data>
  <data key="d14">0</data>
  <data key="d15">0</data>
  <data key="d16">0</data>
</edge>
<edge source="1360" target="1374">
  <data key="d9">203.07043599999997</data>
  <data key="d10">-3.8170030000001134</data>
  <data key="d11">1</data>
  <data key="d12">1</data>
  <data key="d13">1</data>
  <data key="d14">0</data>
  <data key="d15">0</data>
  <data key="d16">0</data>
</edge>
<edge source="1362" target="1364">
  <data key="d9">203.08046300000024</data>
  <data key="d10">0.6373399999997673</data>
  <data key="d11">1</data>
  <data key="d12">1</data>
  <data key="d13">1</data>
  <data key="d14">0</data>
  <data key="d15">0</data>
  <data key="d16">0</data>
</edge>
<edge source="1235" target="1272">
  <data key="d9">162.0586800000001</data>
  <data key="d10">10.113855999999714</data>
  <data key="d11">1</data>
  <data key="d12">1</data>
  <data key="d13">0</data>
  <data key="d14">1</data>
  <data key="d15">0</data>
  <data key="d16">0</data>
</edge>
<edge source="1364" target="1272">
  <data key="d9">146.0451079999998</data>
  <data key="d10">22.69389299999989</data>
  <data key="d11">1</data>
  <data key="d12">1</data>
  <data key="d13">0</data>
  <data key="d14">0</data>
  <data key="d15">1</data>
  <data key="d16">0</data>
</edge>
</graph></graphml>