<?xml version='1.0' encoding='utf-8'?>
<graphml xmlns="http://graphml.graphdrawing.org/xmlns" xmlns:xsi="http://www.w3.org/2001/XMLSchema-instance" xsi:schemaLocation="http://graphml.graphdrawing.org/xmlns http://graphml.graphdrawing.org/xmlns/1.0/graphml.xsd"><key attr.name="glymod_NeuAc" attr.type="long" for="edge" id="d16"/>
<key attr.name="glymod_Fuc" attr.type="long" for="edge" id="d15"/>
<key attr.name="glymod_Hex" attr.type="long" for="edge" id="d14"/>
<key attr.name="glymod_HexNAc" attr.type="long" for="edge" id="d13"/>
<key attr.name="weight" attr.type="long" for="edge" id="d12"/>
<key attr.name="hypotenuse" attr.type="long" for="edge" id="d11"/>
<key attr.name="delta_RT" attr.type="double" for="edge" id="d10"/>
<key attr.name="delta_m/z" attr.type="double" for="edge" id="d9"/>
<key attr.name="jumplist" attr.type="string" for="node" id="d8"/>
<key attr.name="jumplist_cluster" attr.type="string" for="node" id="d7"/>
<key attr.name="jumplist_all" attr.type="string" for="node" id="d6"/>
<key attr.name="precursor_charge" attr.type="long" for="node" id="d5"/>
<key attr.name="precursor_rt" attr.type="double" for="node" id="d4"/>
<key attr.name="precursor_mz" attr.type="double" for="node" id="d3"/>
<key attr.name="intensity" attr.type="double" for="node" id="d2"/>
<key attr.name="mz" attr.type="double" for="node" id="d1"/>
<key attr.name="rt" attr.type="double" for="node" id="d0"/>
<graph edgedefault="undirected"><node id="320">
  <data key="d0">1692.0238960000001</data>
  <data key="d1">3459.34654</data>
  <data key="d2">268945984.0</data>
  <data key="d3">692.8765844999999</data>
  <data key="d4">1692.0238960000001</data>
  <data key="d5">5</data>
</node>
<node id="226">
  <data key="d0">1664.5993349999999</data>
  <data key="d1">3945.499314</data>
  <data key="d2">109068000.0</data>
  <data key="d3">790.1071392000001</data>
  <data key="d4">1664.5993349999999</data>
  <data key="d5">5</data>
</node>
<node id="326">
  <data key="d0">1693.1298370000002</data>
  <data key="d1">3418.31474</data>
  <data key="d2">85710000.0</data>
  <data key="d3">684.6702245</data>
  <data key="d4">1693.1298370000002</data>
  <data key="d5">5</data>
</node>
<node id="202">
  <data key="d0">1657.32589</data>
  <data key="d1">4294.646470000001</data>
  <data key="d2">33611900.0</data>
  <data key="d3">859.9365703999999</data>
  <data key="d4">1657.32589</data>
  <data key="d5">5</data>
</node>
<node id="269">
  <data key="d0">1673.782584</data>
  <data key="d1">3783.4398340000002</data>
  <data key="d2">377708000.0</data>
  <data key="d3">757.6952432999999</data>
  <data key="d4">1673.782584</data>
  <data key="d5">5</data>
</node>
<node id="430">
  <data key="d0">1721.1295539999999</data>
  <data key="d1">3256.2604460000002</data>
  <data key="d2">386700000.0</data>
  <data key="d3">815.0723879999999</data>
  <data key="d4">1721.1295539999999</data>
  <data key="d5">4</data>
</node>
<node id="304">
  <data key="d0">1687.4312350000002</data>
  <data key="d1">3621.4019439999997</data>
  <data key="d2">520660000.0</data>
  <data key="d3">725.2876652000001</data>
  <data key="d4">1687.4312350000002</data>
  <data key="d5">5</data>
</node>
<node id="337">
  <data key="d0">1695.9518079999998</data>
  <data key="d1">3662.42393</data>
  <data key="d2">63788800.0</data>
  <data key="d3">733.4920624</data>
  <data key="d4">1695.9518079999998</data>
  <data key="d5">5</data>
</node>
<node id="381">
  <data key="d0">1706.6636649999998</data>
  <data key="d1">3053.188052</data>
  <data key="d2">15939000.0</data>
  <data key="d3">611.6448869</data>
  <data key="d4">1706.6636649999998</data>
  <data key="d5">5</data>
</node>
<node id="339">
  <data key="d0">1696.082988</data>
  <data key="d1">3783.450427</data>
  <data key="d2">34163700.0</data>
  <data key="d3">946.8698832</data>
  <data key="d4">1696.082988</data>
  <data key="d5">4</data>
</node>
<node id="379">
  <data key="d0">1706.003253</data>
  <data key="d1">3256.268082</data>
  <data key="d2">89430200.0</data>
  <data key="d3">652.2608928999999</data>
  <data key="d4">1706.003253</data>
  <data key="d5">5</data>
</node>
<node id="280">
  <data key="d0">1679.0179859999998</data>
  <data key="d1">3824.481556</data>
  <data key="d2">155528992.0</data>
  <data key="d3">765.9035877</data>
  <data key="d4">1679.0179859999998</data>
  <data key="d5">5</data>
</node>
<node id="281">
  <data key="d0">1679.379749</data>
  <data key="d1">3580.3789020000004</data>
  <data key="d2">45407000.0</data>
  <data key="d3">896.1020018999999</data>
  <data key="d4">1679.379749</data>
  <data key="d5">4</data>
</node>
<node id="347">
  <data key="d0">1697.5873609999999</data>
  <data key="d1">3580.372143</data>
  <data key="d2">35863300.0</data>
  <data key="d3">717.0817049999999</data>
  <data key="d4">1697.5873609999999</data>
  <data key="d5">5</data>
</node>
<node id="349">
  <data key="d0">1698.173735</data>
  <data key="d1">3215.237929</data>
  <data key="d2">11775200.0</data>
  <data key="d3">644.0548622</data>
  <data key="d4">1698.173735</data>
  <data key="d5">5</data>
</node>
<node id="221">
  <data key="d0">1662.776372</data>
  <data key="d1">4148.585703</data>
  <data key="d2">94225104.0</data>
  <data key="d3">830.724417</data>
  <data key="d4">1662.776372</data>
  <data key="d5">5</data>
</node>
<node id="0">
  <data key="d6">&lt;table border="1" class="dataframe"&gt;
  &lt;thead&gt;
    &lt;tr style="text-align: right;"&gt;
      &lt;th&gt;difference&lt;/th&gt;
      &lt;th&gt;max_rt&lt;/th&gt;
      &lt;th&gt;weight&lt;/th&gt;
      &lt;th&gt;color&lt;/th&gt;
      &lt;th&gt;cluster&lt;/th&gt;
      &lt;th&gt;cluster_min_rt&lt;/th&gt;
      &lt;th&gt;glymod_HexNAc&lt;/th&gt;
      &lt;th&gt;glymod_Hex&lt;/th&gt;
      &lt;th&gt;glymod_Fuc&lt;/th&gt;
      &lt;th&gt;glymod_NeuAc&lt;/th&gt;
    &lt;/tr&gt;
  &lt;/thead&gt;
  &lt;tbody&gt;
    &lt;tr&gt;
      &lt;td&gt;162.05282&lt;/td&gt;
      &lt;td&gt;30&lt;/td&gt;
      &lt;td&gt;1&lt;/td&gt;
      &lt;td&gt;yellow&lt;/td&gt;
      &lt;td&gt;0&lt;/td&gt;
      &lt;td&gt;0&lt;/td&gt;
      &lt;td&gt;0&lt;/td&gt;
      &lt;td&gt;1&lt;/td&gt;
      &lt;td&gt;0&lt;/td&gt;
      &lt;td&gt;0&lt;/td&gt;
    &lt;/tr&gt;
    &lt;tr&gt;
      &lt;td&gt;203.07937&lt;/td&gt;
      &lt;td&gt;30&lt;/td&gt;
      &lt;td&gt;1&lt;/td&gt;
      &lt;td&gt;blue&lt;/td&gt;
      &lt;td&gt;0&lt;/td&gt;
      &lt;td&gt;0&lt;/td&gt;
      &lt;td&gt;1&lt;/td&gt;
      &lt;td&gt;0&lt;/td&gt;
      &lt;td&gt;0&lt;/td&gt;
      &lt;td&gt;0&lt;/td&gt;
    &lt;/tr&gt;
    &lt;tr&gt;
      &lt;td&gt;365.13219&lt;/td&gt;
      &lt;td&gt;50&lt;/td&gt;
      &lt;td&gt;1&lt;/td&gt;
      &lt;td&gt;green&lt;/td&gt;
      &lt;td&gt;0&lt;/td&gt;
      &lt;td&gt;0&lt;/td&gt;
      &lt;td&gt;1&lt;/td&gt;
      &lt;td&gt;1&lt;/td&gt;
      &lt;td&gt;0&lt;/td&gt;
      &lt;td&gt;0&lt;/td&gt;
    &lt;/tr&gt;
    &lt;tr&gt;
      &lt;td&gt;146.05791&lt;/td&gt;
      &lt;td&gt;30&lt;/td&gt;
      &lt;td&gt;1&lt;/td&gt;
      &lt;td&gt;red&lt;/td&gt;
      &lt;td&gt;0&lt;/td&gt;
      &lt;td&gt;0&lt;/td&gt;
      &lt;td&gt;0&lt;/td&gt;
      &lt;td&gt;0&lt;/td&gt;
      &lt;td&gt;1&lt;/td&gt;
      &lt;td&gt;0&lt;/td&gt;
    &lt;/tr&gt;
    &lt;tr&gt;
      &lt;td&gt;291.09540&lt;/td&gt;
      &lt;td&gt;500&lt;/td&gt;
      &lt;td&gt;1&lt;/td&gt;
      &lt;td&gt;pink&lt;/td&gt;
      &lt;td&gt;1&lt;/td&gt;
      &lt;td&gt;100&lt;/td&gt;
      &lt;td&gt;0&lt;/td&gt;
      &lt;td&gt;0&lt;/td&gt;
      &lt;td&gt;0&lt;/td&gt;
      &lt;td&gt;1&lt;/td&gt;
    &lt;/tr&gt;
  &lt;/tbody&gt;
&lt;/table&gt;</data>
  <data key="d7">&lt;table border="1" class="dataframe"&gt;
  &lt;thead&gt;
    &lt;tr style="text-align: right;"&gt;
      &lt;th&gt;difference&lt;/th&gt;
      &lt;th&gt;max_rt&lt;/th&gt;
      &lt;th&gt;weight&lt;/th&gt;
      &lt;th&gt;color&lt;/th&gt;
      &lt;th&gt;cluster&lt;/th&gt;
      &lt;th&gt;cluster_min_rt&lt;/th&gt;
      &lt;th&gt;glymod_HexNAc&lt;/th&gt;
      &lt;th&gt;glymod_Hex&lt;/th&gt;
      &lt;th&gt;glymod_Fuc&lt;/th&gt;
      &lt;th&gt;glymod_NeuAc&lt;/th&gt;
    &lt;/tr&gt;
  &lt;/thead&gt;
  &lt;tbody&gt;
    &lt;tr&gt;
      &lt;td&gt;291.0954&lt;/td&gt;
      &lt;td&gt;500&lt;/td&gt;
      &lt;td&gt;1&lt;/td&gt;
      &lt;td&gt;pink&lt;/td&gt;
      &lt;td&gt;1&lt;/td&gt;
      &lt;td&gt;100&lt;/td&gt;
      &lt;td&gt;0&lt;/td&gt;
      &lt;td&gt;0&lt;/td&gt;
      &lt;td&gt;0&lt;/td&gt;
      &lt;td&gt;1&lt;/td&gt;
    &lt;/tr&gt;
  &lt;/tbody&gt;
&lt;/table&gt;</data>
  <data key="d8">&lt;table border="1" class="dataframe"&gt;
  &lt;thead&gt;
    &lt;tr style="text-align: right;"&gt;
      &lt;th&gt;difference&lt;/th&gt;
      &lt;th&gt;max_rt&lt;/th&gt;
      &lt;th&gt;weight&lt;/th&gt;
      &lt;th&gt;color&lt;/th&gt;
      &lt;th&gt;cluster&lt;/th&gt;
      &lt;th&gt;cluster_min_rt&lt;/th&gt;
      &lt;th&gt;glymod_HexNAc&lt;/th&gt;
      &lt;th&gt;glymod_Hex&lt;/th&gt;
      &lt;th&gt;glymod_Fuc&lt;/th&gt;
      &lt;th&gt;glymod_NeuAc&lt;/th&gt;
    &lt;/tr&gt;
  &lt;/thead&gt;
  &lt;tbody&gt;
    &lt;tr&gt;
      &lt;td&gt;162.05282&lt;/td&gt;
      &lt;td&gt;30&lt;/td&gt;
      &lt;td&gt;1&lt;/td&gt;
      &lt;td&gt;yellow&lt;/td&gt;
      &lt;td&gt;0&lt;/td&gt;
      &lt;td&gt;0&lt;/td&gt;
      &lt;td&gt;0&lt;/td&gt;
      &lt;td&gt;1&lt;/td&gt;
      &lt;td&gt;0&lt;/td&gt;
      &lt;td&gt;0&lt;/td&gt;
    &lt;/tr&gt;
    &lt;tr&gt;
      &lt;td&gt;203.07937&lt;/td&gt;
      &lt;td&gt;30&lt;/td&gt;
      &lt;td&gt;1&lt;/td&gt;
      &lt;td&gt;blue&lt;/td&gt;
      &lt;td&gt;0&lt;/td&gt;
      &lt;td&gt;0&lt;/td&gt;
      &lt;td&gt;1&lt;/td&gt;
      &lt;td&gt;0&lt;/td&gt;
      &lt;td&gt;0&lt;/td&gt;
      &lt;td&gt;0&lt;/td&gt;
    &lt;/tr&gt;
    &lt;tr&gt;
      &lt;td&gt;365.13219&lt;/td&gt;
      &lt;td&gt;50&lt;/td&gt;
      &lt;td&gt;1&lt;/td&gt;
      &lt;td&gt;green&lt;/td&gt;
      &lt;td&gt;0&lt;/td&gt;
      &lt;td&gt;0&lt;/td&gt;
      &lt;td&gt;1&lt;/td&gt;
      &lt;td&gt;1&lt;/td&gt;
      &lt;td&gt;0&lt;/td&gt;
      &lt;td&gt;0&lt;/td&gt;
    &lt;/tr&gt;
    &lt;tr&gt;
      &lt;td&gt;146.05791&lt;/td&gt;
      &lt;td&gt;30&lt;/td&gt;
      &lt;td&gt;1&lt;/td&gt;
      &lt;td&gt;red&lt;/td&gt;
      &lt;td&gt;0&lt;/td&gt;
      &lt;td&gt;0&lt;/td&gt;
      &lt;td&gt;0&lt;/td&gt;
      &lt;td&gt;0&lt;/td&gt;
      &lt;td&gt;1&lt;/td&gt;
      &lt;td&gt;0&lt;/td&gt;
    &lt;/tr&gt;
  &lt;/tbody&gt;
&lt;/table&gt;</data>
  <data key="d0">0.0</data>
  <data key="d1">0.0</data>
  <data key="d2">0.0</data>
</node>
<edge source="320" target="280">
  <data key="d9">365.1350160000002</data>
  <data key="d10">13.005910000000313</data>
  <data key="d11">1</data>
  <data key="d12">1</data>
  <data key="d13">1</data>
  <data key="d14">1</data>
  <data key="d15">0</data>
  <data key="d16">0</data>
</edge>
<edge source="320" target="304">
  <data key="d9">162.05540399999973</data>
  <data key="d10">4.592660999999907</data>
  <data key="d11">1</data>
  <data key="d12">1</data>
  <data key="d13">0</data>
  <data key="d14">1</data>
  <data key="d15">0</data>
  <data key="d16">0</data>
</edge>
<edge source="320" target="379">
  <data key="d9">203.07845799999996</data>
  <data key="d10">13.979356999999936</data>
  <data key="d11">1</data>
  <data key="d12">1</data>
  <data key="d13">1</data>
  <data key="d14">0</data>
  <data key="d15">0</data>
  <data key="d16">0</data>
</edge>
<edge source="320" target="430">
  <data key="d9">203.08609399999978</data>
  <data key="d10">29.10565799999972</data>
  <data key="d11">1</data>
  <data key="d12">1</data>
  <data key="d13">1</data>
  <data key="d14">0</data>
  <data key="d15">0</data>
  <data key="d16">0</data>
</edge>
<edge source="226" target="221">
  <data key="d9">203.0863889999996</data>
  <data key="d10">1.8229629999998451</data>
  <data key="d11">1</data>
  <data key="d12">1</data>
  <data key="d13">1</data>
  <data key="d14">0</data>
  <data key="d15">0</data>
  <data key="d16">0</data>
</edge>
<edge source="226" target="269">
  <data key="d9">162.0594799999999</data>
  <data key="d10">9.18324900000016</data>
  <data key="d11">1</data>
  <data key="d12">1</data>
  <data key="d13">0</data>
  <data key="d14">1</data>
  <data key="d15">0</data>
  <data key="d16">0</data>
</edge>
<edge source="226" target="281">
  <data key="d9">365.12041199999976</data>
  <data key="d10">14.780414000000064</data>
  <data key="d11">1</data>
  <data key="d12">1</data>
  <data key="d13">1</data>
  <data key="d14">1</data>
  <data key="d15">0</data>
  <data key="d16">0</data>
</edge>
<edge source="226" target="347">
  <data key="d9">365.1271710000001</data>
  <data key="d10">32.98802599999999</data>
  <data key="d11">1</data>
  <data key="d12">1</data>
  <data key="d13">1</data>
  <data key="d14">1</data>
  <data key="d15">0</data>
  <data key="d16">0</data>
</edge>
<edge source="326" target="269">
  <data key="d9">365.12509400000044</data>
  <data key="d10">19.347253000000137</data>
  <data key="d11">1</data>
  <data key="d12">1</data>
  <data key="d13">1</data>
  <data key="d14">1</data>
  <data key="d15">0</data>
  <data key="d16">0</data>
</edge>
<edge source="326" target="281">
  <data key="d9">162.06416200000058</data>
  <data key="d10">13.750088000000233</data>
  <data key="d11">1</data>
  <data key="d12">1</data>
  <data key="d13">0</data>
  <data key="d14">1</data>
  <data key="d15">0</data>
  <data key="d16">0</data>
</edge>
<edge source="326" target="304">
  <data key="d9">203.08720399999993</data>
  <data key="d10">5.698601999999937</data>
  <data key="d11">1</data>
  <data key="d12">1</data>
  <data key="d13">1</data>
  <data key="d14">0</data>
  <data key="d15">0</data>
  <data key="d16">0</data>
</edge>
<edge source="326" target="349">
  <data key="d9">203.0768109999999</data>
  <data key="d10">5.043897999999899</data>
  <data key="d11">1</data>
  <data key="d12">1</data>
  <data key="d13">1</data>
  <data key="d14">0</data>
  <data key="d15">0</data>
  <data key="d16">0</data>
</edge>
<edge source="326" target="381">
  <data key="d9">365.12668799999983</data>
  <data key="d10">13.53382799999963</data>
  <data key="d11">1</data>
  <data key="d12">1</data>
  <data key="d13">1</data>
  <data key="d14">1</data>
  <data key="d15">0</data>
  <data key="d16">0</data>
</edge>
<edge source="202" target="221">
  <data key="d9">146.06076700000085</data>
  <data key="d10">5.450481999999965</data>
  <data key="d11">1</data>
  <data key="d12">1</data>
  <data key="d13">0</data>
  <data key="d14">0</data>
  <data key="d15">1</data>
  <data key="d16">0</data>
</edge>
<edge source="269" target="221">
  <data key="d9">365.1458689999995</data>
  <data key="d10">11.006212000000005</data>
  <data key="d11">1</data>
  <data key="d12">1</data>
  <data key="d13">1</data>
  <data key="d14">1</data>
  <data key="d15">0</data>
  <data key="d16">0</data>
</edge>
<edge source="269" target="281">
  <data key="d9">203.06093199999987</data>
  <data key="d10">5.5971649999999045</data>
  <data key="d11">1</data>
  <data key="d12">1</data>
  <data key="d13">1</data>
  <data key="d14">0</data>
  <data key="d15">0</data>
  <data key="d16">0</data>
</edge>
<edge source="269" target="304">
  <data key="d9">162.03789000000052</data>
  <data key="d10">13.6486510000002</data>
  <data key="d11">1</data>
  <data key="d12">1</data>
  <data key="d13">0</data>
  <data key="d14">1</data>
  <data key="d15">0</data>
  <data key="d16">0</data>
</edge>
<edge source="430" target="304">
  <data key="d9">365.1414979999995</data>
  <data key="d10">33.69831899999963</data>
  <data key="d11">1</data>
  <data key="d12">1</data>
  <data key="d13">1</data>
  <data key="d14">1</data>
  <data key="d15">0</data>
  <data key="d16">0</data>
</edge>
<edge source="430" target="381">
  <data key="d9">203.07239400000026</data>
  <data key="d10">-14.465889000000061</data>
  <data key="d11">1</data>
  <data key="d12">1</data>
  <data key="d13">1</data>
  <data key="d14">0</data>
  <data key="d15">0</data>
  <data key="d16">0</data>
</edge>
<edge source="304" target="280">
  <data key="d9">203.07961200000045</data>
  <data key="d10">8.413249000000405</data>
  <data key="d11">1</data>
  <data key="d12">1</data>
  <data key="d13">1</data>
  <data key="d14">0</data>
  <data key="d15">0</data>
  <data key="d16">0</data>
</edge>
<edge source="304" target="379">
  <data key="d9">365.1338619999997</data>
  <data key="d10">18.572017999999844</data>
  <data key="d11">1</data>
  <data key="d12">1</data>
  <data key="d13">1</data>
  <data key="d14">1</data>
  <data key="d15">0</data>
  <data key="d16">0</data>
</edge>
<edge source="337" target="280">
  <data key="d9">162.05762600000025</data>
  <data key="d10">16.933821999999964</data>
  <data key="d11">1</data>
  <data key="d12">1</data>
  <data key="d13">0</data>
  <data key="d14">1</data>
  <data key="d15">0</data>
  <data key="d16">0</data>
</edge>
<edge source="381" target="349">
  <data key="d9">162.04987699999992</data>
  <data key="d10">8.489929999999731</data>
  <data key="d11">1</data>
  <data key="d12">1</data>
  <data key="d13">0</data>
  <data key="d14">1</data>
  <data key="d15">0</data>
  <data key="d16">0</data>
</edge>
<edge source="381" target="379">
  <data key="d9">203.08003000000008</data>
  <data key="d10">0.6604119999997238</data>
  <data key="d11">1</data>
  <data key="d12">1</data>
  <data key="d13">1</data>
  <data key="d14">0</data>
  <data key="d15">0</data>
  <data key="d16">0</data>
</edge>
<edge source="339" target="221">
  <data key="d9">365.1352759999995</data>
  <data key="d10">33.30661599999985</data>
  <data key="d11">1</data>
  <data key="d12">1</data>
  <data key="d13">1</data>
  <data key="d14">1</data>
  <data key="d15">0</data>
  <data key="d16">0</data>
</edge>
<edge source="339" target="347">
  <data key="d9">203.07828400000017</data>
  <data key="d10">1.5043729999999869</data>
  <data key="d11">1</data>
  <data key="d12">1</data>
  <data key="d13">1</data>
  <data key="d14">0</data>
  <data key="d15">0</data>
  <data key="d16">0</data>
</edge>
<edge source="281" target="349">
  <data key="d9">365.1409730000005</data>
  <data key="d10">18.79398600000013</data>
  <data key="d11">1</data>
  <data key="d12">1</data>
  <data key="d13">1</data>
  <data key="d14">1</data>
  <data key="d15">0</data>
  <data key="d16">0</data>
</edge>
<edge source="347" target="349">
  <data key="d9">365.13421400000016</data>
  <data key="d10">0.5863740000002053</data>
  <data key="d11">1</data>
  <data key="d12">1</data>
  <data key="d13">1</data>
  <data key="d14">1</data>
  <data key="d15">0</data>
  <data key="d16">0</data>
</edge>
</graph></graphml>